5.83039 5.95079 6.03296 6.53566 5.72601 5.82341 5.77236 5.77357 6.22732 6.36576 5.87624 5.75255 6.26661 6.07829 5.896 5.89201 6.42187 6.39615 6.59458 5.93296 6.26811 6.07376 6.31987 6.15186 6.05568 5.65188 5.31194 6.33192 5.75796 6.17497 7.0662 5.79698 5.36132 6.14511 5.56767 6.46852 5.62082 5.58907 5.85749 5.66007 5.79422 6.12174 6.33974 5.75305 6.1073 5.7763 6.4794 6.09603 6.03248 5.68659 
23.8354 +(0)i	0.212536 +(2.8125)i	0.38708 +(0)i	-1.19072 +(2.53125)i	0.84912 +(0)i	-0.233855 +(2.125)i	0.021493 +(4.17233e-08)i	1.03044 +(1.65)i	2.58965 +(0)i	7.00649e-44 +(3.92364e-44)i	7.00649e-44 +(6.21846e-39)i	3.64338e-44 +(1.13847e-19)i	7.00649e-44 +(1.13847e-19)i	3.64338e-44 +(4.2039e-44)i	1.96182e-44 +(1.4013e-45)i	5.89592e-39 +(1.11459e-19)i	3.19569e-39 +(0)i	3.19564e-39 +(3.39062)i	5.88917e-39 +(1.13847e-19)i	3.19059e-39 +(3.64338e-44)i	2.8026e-45 +(0)i	3.1956e-39 +(1.875)i	2.10195e-43 +(0)i	5.60519e-45 +(2.125)i	3.19559e-39 +(-2.10851e-05)i	0 +(0)i	3.19559e-39 +(0)i	5.60519e-45 +(2.125)i	2.10195e-43 +(0)i	3.1956e-39 +(1.875)i	2.8026e-45 +(0)i	3.19059e-39 +(3.64338e-44)i	5.88917e-39 +(1.13847e-19)i	3.19564e-39 +(3.39062)i	3.19569e-39 +(0)i	5.89592e-39 +(1.11459e-19)i	3.50325e-44 +(1.4013e-45)i	1.82169e-44 +(4.2039e-44)i	7.00649e-44 +(1.13847e-19)i	3.64338e-44 +(1.13847e-19)i	7.00649e-44 +(6.21846e-39)i	7.00649e-44 +(3.92364e-44)i	2.58965 +(0)i	1.03044 +(1.65)i	0.021493 +(4.17233e-08)i	-0.233855 +(2.125)i	0.84912 +(0)i	-1.19072 +(2.53125)i	0.38708 +(0)i	0.212536 +(2.8125)i	
23.8354 2.82052 0.38708 2.79733 0.84912 2.13783 0.021493 1.94533 2.58965 0 0 1.13847e-19 1.13847e-19 0 0 1.11459e-19 0 3.39062 1.13847e-19 0 0 1.875 0 2.125 2.10851e-05 0 0 2.125 0 1.875 0 0 1.13847e-19 3.39062 0 1.11459e-19 0 0 1.13847e-19 1.13847e-19 0 0 2.58965 1.94533 0.021493 2.13783 0.84912 2.79733 0.38708 2.82052 

5.83039 5.95079 6.03296 6.53566 5.72601 5.82341 5.77236 5.77357 6.22732 6.36576 5.87624 5.75255 6.26661 6.07829 5.896 5.89201 6.42187 6.39615 6.59458 5.93296 6.26811 6.07376 6.31987 6.15186 6.05568 5.65188 5.31194 6.33192 5.75796 6.17497 7.0662 5.79698 5.36132 6.14511 5.56767 6.46852 5.62082 5.58907 5.85749 5.66007 5.79422 6.12174 6.33974 5.75305 6.1073 5.7763 6.4794 6.09603 6.03248 5.68659 
47.4451 +(0)i	-0.344422 +(2.8125)i	-0.248914 +(0)i	0.553185 +(2.53125)i	-0.721714 +(0)i	0.889558 +(2.125)i	-0.535031 +(4.17233e-08)i	0.36835 +(1.65)i	3.0343 +(0)i	7.00649e-44 +(3.92364e-44)i	7.00649e-44 +(6.21846e-39)i	3.64338e-44 +(1.13847e-19)i	7.00649e-44 +(1.13847e-19)i	3.64338e-44 +(4.2039e-44)i	1.96182e-44 +(1.4013e-45)i	5.89592e-39 +(1.11459e-19)i	3.19569e-39 +(0)i	3.19564e-39 +(3.39062)i	5.88934e-39 +(1.13847e-19)i	3.19181e-39 +(3.64338e-44)i	2.8026e-45 +(0)i	3.1956e-39 +(1.875)i	2.10195e-43 +(0)i	5.60519e-45 +(2.125)i	3.19559e-39 +(-2.10851e-05)i	0 +(0)i	3.19559e-39 +(0)i	5.60519e-45 +(2.125)i	2.10195e-43 +(0)i	3.1956e-39 +(1.875)i	2.8026e-45 +(0)i	3.19181e-39 +(3.64338e-44)i	5.88934e-39 +(1.13847e-19)i	3.19564e-39 +(3.39062)i	3.19569e-39 +(0)i	5.89592e-39 +(1.11459e-19)i	3.50325e-44 +(1.4013e-45)i	1.82169e-44 +(4.2039e-44)i	7.00649e-44 +(1.13847e-19)i	3.64338e-44 +(1.13847e-19)i	7.00649e-44 +(6.21846e-39)i	7.00649e-44 +(3.92364e-44)i	3.0343 +(0)i	0.36835 +(1.65)i	-0.535031 +(4.17233e-08)i	0.889558 +(2.125)i	-0.721714 +(0)i	0.553185 +(2.53125)i	-0.248914 +(0)i	-0.344422 +(2.8125)i	
47.4451 2.83351 0.248914 2.59099 0.721714 2.30368 0.535031 1.69062 3.0343 0 0 1.13847e-19 1.13847e-19 0 0 1.11459e-19 0 3.39062 1.13847e-19 0 0 1.875 0 2.125 2.10851e-05 0 0 2.125 0 1.875 0 0 1.13847e-19 3.39062 0 1.11459e-19 0 0 1.13847e-19 1.13847e-19 0 0 3.0343 1.69062 0.535031 2.30368 0.721714 2.59099 0.248914 2.83351 

8.04345 8.09868 8.09314 7.8197 8.03351 7.9771 7.94494 7.95888 7.84039 8.01129 8.04563 7.9919 8.06337 8.07812 8.0753 7.95417 7.95887 7.88692 7.9417 7.95545 8.00663 8.113 8.13026 7.72812 7.90871 8.04886 8.17326 8.01538 7.97207 8.23843 7.78659 7.97464 7.91272 8.16722 8.09979 7.86323 7.97701 8.09129 8.18095 8.08705 8.02501 7.90609 7.90077 8.03643 8.05372 8.12473 7.93804 8.19124 7.93934 8.06579 
63.9694 +(0)i	0.194319 +(2.8125)i	0.0388813 +(0)i	-0.174437 +(2.53125)i	0.260693 +(0)i	0.135759 +(2.125)i	0.297198 +(4.17233e-08)i	-0.16064 +(1.65)i	3.24245 +(0)i	7.00649e-44 +(3.92364e-44)i	7.00649e-44 +(6.21846e-39)i	3.64338e-44 +(1.13847e-19)i	7.00649e-44 +(1.13847e-19)i	3.64338e-44 +(4.2039e-44)i	1.96182e-44 +(1.4013e-45)i	5.89592e-39 +(1.11459e-19)i	3.19569e-39 +(0)i	3.19564e-39 +(3.39062)i	5.88952e-39 +(1.13847e-19)i	3.19303e-39 +(3.64338e-44)i	2.8026e-45 +(0)i	3.1956e-39 +(1.875)i	2.10195e-43 +(0)i	5.60519e-45 +(2.125)i	3.19559e-39 +(-2.10851e-05)i	0 +(0)i	3.19559e-39 +(3.1941e-39)i	5.60519e-45 +(2.125)i	2.10195e-43 +(0)i	3.1956e-39 +(1.875)i	2.8026e-45 +(0)i	3.19303e-39 +(3.64338e-44)i	5.88952e-39 +(1.13847e-19)i	3.19564e-39 +(3.39062)i	3.19569e-39 +(0)i	5.89592e-39 +(1.11459e-19)i	3.50325e-44 +(1.4013e-45)i	1.82169e-44 +(4.2039e-44)i	7.00649e-44 +(1.13847e-19)i	3.64338e-44 +(1.13847e-19)i	7.00649e-44 +(6.21846e-39)i	7.00649e-44 +(3.92364e-44)i	3.24245 +(0)i	-0.16064 +(1.65)i	0.297198 +(4.17233e-08)i	0.135759 +(2.125)i	0.260693 +(0)i	-0.174437 +(2.53125)i	0.0388813 +(0)i	0.194319 +(2.8125)i	
63.9694 2.8192 0.0388813 2.53725 0.260693 2.12933 0.297198 1.6578 3.24245 0 0 1.13847e-19 1.13847e-19 0 0 1.11459e-19 0 3.39062 1.13847e-19 0 0 1.875 0 2.125 2.10851e-05 0 0 2.125 0 1.875 0 0 1.13847e-19 3.39062 0 1.11459e-19 0 0 1.13847e-19 1.13847e-19 0 0 3.24245 1.6578 0.297198 2.12933 0.260693 2.53725 0.0388813 2.8192 

2.66272 2.75328 3.5855 3.29076 2.96638 3.05728 3.08872 3.18213 3.06533 2.96581 2.89497 3.02859 3.16722 2.79799 2.76774 3.44934 2.96847 2.87734 2.629 3.31239 3.60668 3.23294 2.86183 2.96757 3.01811 3.02962 3.12425 3.031 2.95167 2.91055 2.90263 2.88328 3.25246 2.96704 3.11215 2.94827 2.90379 3.37476 3.18008 2.55801 2.84932 3.22321 3.26316 3.27868 2.52601 2.71499 3.05077 3.56006 2.76449 3.01822 
24.5868 +(0)i	-0.595432 +(2.8125)i	-1.04513 +(0)i	-0.0118869 +(2.53125)i	0.0198793 +(0)i	0.358635 +(2.125)i	-0.662322 +(4.17233e-08)i	-0.634928 +(1.65)i	2.47765 +(0)i	7.00649e-44 +(3.92364e-44)i	7.00649e-44 +(6.21846e-39)i	3.64338e-44 +(1.13847e-19)i	7.00649e-44 +(1.13847e-19)i	3.64338e-44 +(4.2039e-44)i	1.96182e-44 +(1.4013e-45)i	5.89592e-39 +(1.11459e-19)i	3.19569e-39 +(0)i	3.19564e-39 +(3.39062)i	5.8897e-39 +(1.13847e-19)i	3.19425e-39 +(3.64338e-44)i	2.8026e-45 +(0)i	3.1956e-39 +(1.875)i	2.10195e-43 +(0)i	5.60519e-45 +(2.125)i	3.19559e-39 +(-2.10851e-05)i	0 +(0)i	3.19559e-39 +(0)i	5.60519e-45 +(2.125)i	2.10195e-43 +(0)i	3.1956e-39 +(1.875)i	2.8026e-45 +(0)i	3.19425e-39 +(3.64338e-44)i	5.8897e-39 +(1.13847e-19)i	3.19564e-39 +(3.39062)i	3.19569e-39 +(0)i	5.89592e-39 +(1.11459e-19)i	3.50325e-44 +(1.4013e-45)i	1.82169e-44 +(4.2039e-44)i	7.00649e-44 +(1.13847e-19)i	3.64338e-44 +(1.13847e-19)i	7.00649e-44 +(6.21846e-39)i	7.00649e-44 +(3.92364e-44)i	2.47765 +(0)i	-0.634928 +(1.65)i	-0.662322 +(4.17233e-08)i	0.358635 +(2.125)i	0.0198793 +(0)i	-0.0118869 +(2.53125)i	-1.04513 +(0)i	-0.595432 +(2.8125)i	
24.5868 2.87484 1.04513 2.53128 0.0198793 2.15505 0.662322 1.76795 2.47765 0 0 1.13847e-19 1.13847e-19 0 0 1.11459e-19 0 3.39062 1.13847e-19 0 0 1.875 0 2.125 2.10851e-05 0 0 2.125 0 1.875 0 0 1.13847e-19 3.39062 0 1.11459e-19 0 0 1.13847e-19 1.13847e-19 0 0 2.47765 1.76795 0.662322 2.15505 0.0198793 2.53128 1.04513 2.87484 

